-------------------------------------------------------------------------------
Test set: polimi.Carcassonne.Client.Controller.ProtocolControllerTest
-------------------------------------------------------------------------------
Tests run: 6, Failures: 0, Errors: 0, Skipped: 0, Time elapsed: 0.022 sec
